<?xml version="1.0" encoding="UTF-8" standalone="no"?>
<svg
   xmlns:dc="http://purl.org/dc/elements/1.1/"
   xmlns:cc="http://creativecommons.org/ns#"
   xmlns:rdf="http://www.w3.org/1999/02/22-rdf-syntax-ns#"
   xmlns:svg="http://www.w3.org/2000/svg"
   xmlns="http://www.w3.org/2000/svg"
   xmlns:sodipodi="http://sodipodi.sourceforge.net/DTD/sodipodi-0.dtd"
   xmlns:inkscape="http://www.inkscape.org/namespaces/inkscape"
   id="svg8"
   version="1.1"
   viewBox="0 0 141.82643 69.435455"
   height="69.435455mm"
   width="141.82643mm"
   sodipodi:docname="mouth1.svg"
   inkscape:version="0.92.4 5da689c313, 2019-01-14">
  <sodipodi:namedview
     pagecolor="#ffffff"
     bordercolor="#666666"
     borderopacity="1"
     objecttolerance="10"
     gridtolerance="10"
     guidetolerance="10"
     inkscape:pageopacity="0"
     inkscape:pageshadow="2"
     inkscape:window-width="1920"
     inkscape:window-height="1024"
     id="namedview12"
     showgrid="false"
     fit-margin-top="0"
     fit-margin-left="0"
     fit-margin-right="0"
     fit-margin-bottom="0"
     inkscape:zoom="1.4348602"
     inkscape:cx="172.81633"
     inkscape:cy="184.45976"
     inkscape:window-x="0"
     inkscape:window-y="868"
     inkscape:window-maximized="1"
     inkscape:current-layer="layer1" />
  <defs
     id="defs2" />
  <metadata
     id="metadata5">
    <rdf:RDF>
      <cc:Work
         rdf:about="">
        <dc:format>image/svg+xml</dc:format>
        <dc:type
           rdf:resource="http://purl.org/dc/dcmitype/StillImage" />
        <dc:title></dc:title>
      </cc:Work>
    </rdf:RDF>
  </metadata>
  <g
     transform="translate(363.33951,-121.83162)"
     id="layer1">
    <path
       id="path14"
       d="m -303.60224,147.85807 c -10.74192,1.7959 -49.93594,11.03301 -32.74895,29.40367 5.39299,5.7644 89.3022,16.21509 96.06358,12.60157 6.01619,-3.21526 7.42682,-8.87575 10.04301,-14.46847 9.28459,-19.84804 -19.41269,-28.2665 -30.12903,-29.8704 -14.10699,-2.11138 -29.76854,0.0833 -43.22861,2.33363 z"
       style="fill:none;stroke:#000000;stroke-width:1.32291663;stroke-linecap:round;stroke-linejoin:miter;stroke-miterlimit:4;stroke-dasharray:none;stroke-opacity:1"
       inkscape:connector-curvature="0" />
    <path
       id="path18"
       d="m -325.63219,154.44002 c 5.7887,15.12534 6.57017,-0.65339 9.4233,-3.6924"
       style="fill:none;stroke:#000000;stroke-width:1.32291663;stroke-linecap:round;stroke-linejoin:miter;stroke-miterlimit:4;stroke-dasharray:none;stroke-opacity:1"
       inkscape:connector-curvature="0"
       sodipodi:nodetypes="cc" />
    <path
       id="path20"
       d="m -251.03917,147.58053 c 2.85863,6.97383 2.30431,13.07822 6.92448,3.24046"
       style="fill:none;stroke:#000000;stroke-width:1.32291663;stroke-linecap:round;stroke-linejoin:miter;stroke-miterlimit:4;stroke-dasharray:none;stroke-opacity:1"
       inkscape:connector-curvature="0"
       sodipodi:nodetypes="cc" />
    <path
       id="path22"
       d="m -312.01264,183.62898 c 5.27766,-4.23927 14.96104,-6.74539 24.72641,-0.80303"
       style="fill:none;stroke:#000000;stroke-width:1.32291663;stroke-linecap:round;stroke-linejoin:miter;stroke-miterlimit:4;stroke-dasharray:none;stroke-opacity:1"
       inkscape:connector-curvature="0" />
    <path
       id="path24"
       d="m -288.35788,184.44524 c 0.72697,-1.75969 2.29718,-2.25858 3.80461,-2.91174 2.53607,-1.09885 6.74773,-1.25511 8.02349,-1.25511 7.82101,0 13.31793,5.07625 15.71949,9.67827"
       style="fill:none;stroke:#000000;stroke-width:1.32291663;stroke-linecap:round;stroke-linejoin:miter;stroke-miterlimit:4;stroke-dasharray:none;stroke-opacity:1"
       inkscape:connector-curvature="0" />
    <path
       id="path28"
       d="m -363.29955,127.0734 c 12.8744,0.77925 29.49501,1.08592 32.28405,1.49316 1.17584,0.17169 2.13351,3.96248 3.26959,3.94999 1.20085,-0.0132 0.61419,-3.61943 2.03225,-4.18341 7.94217,-2.12189 16.89947,-2.50535 30.15641,-5.86028"
       style="fill:none;stroke:#000000;stroke-width:1.32291663;stroke-linecap:round;stroke-linejoin:miter;stroke-miterlimit:4;stroke-dasharray:none;stroke-opacity:1"
       inkscape:connector-curvature="0"
       sodipodi:nodetypes="csscc" />
    <path
       style="fill:none;stroke:#000000;stroke-width:1.32291663;stroke-linecap:round;stroke-linejoin:miter;stroke-miterlimit:4;stroke-dasharray:none;stroke-opacity:1"
       d="m -342.39882,157.33811 c -5.22653,4.20528 -5.18793,10.26414 -3.34878,15.92761"
       id="path870"
       inkscape:connector-curvature="0"
       sodipodi:nodetypes="cc" />
    <path
       style="fill:none;stroke:#000000;stroke-width:1.32291663;stroke-linecap:round;stroke-linejoin:miter;stroke-miterlimit:4;stroke-dasharray:none;stroke-opacity:1"
       d="m -228.62614,152.72819 c 5.40157,6.46157 9.1163,16.3822 4.05672,23.97156"
       id="path872"
       inkscape:connector-curvature="0" />
  </g>
</svg>
