2019-08-06 16:48:44	admin	http://dev.ppp/admin/setup/form-builder/editField/?id=2&name=link_to_the_project&modal=1	Unknown field: link_to_the_project (in /site/assets/cache/FileCompiler/site/modules/FormBuilder/ProcessFormBuilder.module line 1898)
2019-08-06 16:51:58	admin	http://dev.ppp/admin/setup/form-builder/editField/?id=2&name=designer_s_developper_s&modal=1	Unknown field: designer_s_developper_s (in /site/assets/cache/FileCompiler/site/modules/FormBuilder/ProcessFormBuilder.module line 1898)
2019-08-06 16:52:10	admin	http://dev.ppp/admin/setup/form-builder/editField/?id=2&name=software_technologies_used&modal=1	Unknown field: software_technologies_used (in /site/assets/cache/FileCompiler/site/modules/FormBuilder/ProcessFormBuilder.module line 1898)
2019-08-06 16:53:11	admin	http://dev.ppp/admin/setup/form-builder/editField/?id=2&name=number_of_copies&modal=1	Unknown field: number_of_copies (in /site/assets/cache/FileCompiler/site/modules/FormBuilder/ProcessFormBuilder.module line 1898)
2019-08-06 16:53:38	admin	http://dev.ppp/admin/setup/form-builder/editField/?id=2&name=designer&modal=1	Unknown field: designer (in /site/assets/cache/FileCompiler/site/modules/FormBuilder/ProcessFormBuilder.module line 1898)
2019-08-06 16:56:17	admin	http://dev.ppp/admin/setup/form-builder/editField/?id=2&name=date&modal=1	Unknown field: date (in /site/assets/cache/FileCompiler/site/modules/FormBuilder/ProcessFormBuilder.module line 1898)
2019-08-06 17:28:54	admin	http://dev.ppp/admin/setup/form-builder/editField/?id=2&name=description_1&modal=1	Unknown field: description_1 (in /site/assets/cache/FileCompiler/site/modules/FormBuilder/ProcessFormBuilder.module line 1898)
2019-08-06 17:30:08	admin	http://dev.ppp/admin/setup/form-builder/editField/?id=2&name=description_&modal=1	Unknown field: description_ (in /site/assets/cache/FileCompiler/site/modules/FormBuilder/ProcessFormBuilder.module line 1898)
2020-02-25 09:48:34	admin	http://dev.ppp/admin/page/?modal=panel&pw_panel=1	SQLSTATE[23000]: Integrity constraint violation: 1062 Duplicate entry 'test-1035' for key 'name_parent_id' (in /wire/core/WireDatabasePDO.php line 480)
2020-02-25 09:49:32	admin	http://dev.ppp/admin/page/	SQLSTATE[23000]: Integrity constraint violation: 1062 Duplicate entry 'test-1035' for key 'name_parent_id' (in /wire/core/WireDatabasePDO.php line 480)
2020-02-25 09:52:11	admin	http://dev.ppp/	Method Pages::name does not exist or is not callable in this context (in /wire/core/Wire.php line 519)
2020-02-25 09:52:58	admin	http://dev.ppp/admin/page/add/?parent_id=1035	SQLSTATE[23000]: Integrity constraint violation: 1062 Duplicate entry 'test-1035' for key 'name_parent_id' (in /wire/core/WireDatabasePDO.php line 480)
2020-02-25 09:56:31	admin	http://dev.ppp/	Unknown Selector operator: '' -- was your selector value properly escaped?  (in /wire/core/Selectors.php line 419)
2020-02-25 09:59:24	admin	http://dev.ppp/	Unknown Selector operator: '' -- was your selector value properly escaped?  (in /wire/core/Selectors.php line 419)
2020-02-25 09:59:48	admin	http://dev.ppp/	Unknown Selector operator: '' -- was your selector value properly escaped?  (in /wire/core/Selectors.php line 419)
2020-02-25 10:00:18	admin	http://dev.ppp/	Unknown Selector operator: '=$' -- was your selector value properly escaped?  (in /wire/core/Selectors.php line 419)
2020-02-25 10:02:38	admin	http://dev.ppp/admin/page/	SQLSTATE[23000]: Integrity constraint violation: 1062 Duplicate entry 'test-1035' for key 'name_parent_id' (in /wire/core/WireDatabasePDO.php line 480)
2020-02-25 10:04:43	admin	http://dev.ppp/admin/page/list/?id=1&render=JSON&start=0&lang=0&open=0-0&mode=actions	SQLSTATE[23000]: Integrity constraint violation: 1062 Duplicate entry 'test-1035' for key 'name_parent_id' (in /wire/core/WireDatabasePDO.php line 480)
2020-02-25 10:04:54	admin	http://dev.ppp/admin/page/edit/?id=1036	SQLSTATE[23000]: Integrity constraint violation: 1062 Duplicate entry 'test-1035' for key 'name_parent_id' (in /wire/core/WireDatabasePDO.php line 480)
2020-02-25 10:07:26	admin	http://dev.ppp/admin/page/list/?id=1&render=JSON&start=0&lang=0&open=0-0&mode=actions	SQLSTATE[23000]: Integrity constraint violation: 1062 Duplicate entry 'test-1035' for key 'name_parent_id' (in /wire/core/WireDatabasePDO.php line 480)
2020-02-25 10:07:48	admin	http://dev.ppp/admin/page/	SQLSTATE[23000]: Integrity constraint violation: 1062 Duplicate entry 'test-1035' for key 'name_parent_id' (in /wire/core/WireDatabasePDO.php line 480)
2020-02-25 12:46:57	?	?	Unable to load WireDatabasePDO - SQLSTATE[HY000] [2002] No such file or directory (in /wire/core/WireDatabasePDO.php line 217)
2020-02-25 12:46:57	?	?	SQLSTATE[HY000] [2002] No such file or directory (in /wire/core/ProcessWire.php line 382)
2020-02-25 12:46:59	?	?	Unable to load WireDatabasePDO - SQLSTATE[HY000] [2002] No such file or directory (in /wire/core/WireDatabasePDO.php line 217)
2020-02-25 12:46:59	?	?	SQLSTATE[HY000] [2002] No such file or directory (in /wire/core/ProcessWire.php line 382)
2020-02-25 12:49:09	?	?	Unable to load WireDatabasePDO - SQLSTATE[HY000] [2002] No such file or directory (in /wire/core/WireDatabasePDO.php line 217)
2020-02-25 12:49:09	?	?	SQLSTATE[HY000] [2002] No such file or directory (in /wire/core/ProcessWire.php line 382)
2020-02-26 14:37:04	admin	https://prepostprint.org/dev/rss/	Method Pages::children does not exist or is not callable in this context (in /wire/core/Wire.php line 519)
2020-04-01 14:26:15	guest	https://prepostprint.org/dev/submit/	Unknown Selector operator: '' -- was your selector value properly escaped? field='BinderyJs', value='', selector: 'title=Scribus, BinderyJs' (in /wire/core/Selectors.php line 419)
2020-04-02 19:55:32	admin	https://prepostprint.org/dev/submit/	Unknown Selector operator: '' -- was your selector value properly escaped? field='test', value='', selector: 'title=test, test' (in /wire/core/Selectors.php line 419)
2020-04-02 20:02:32	admin	https://prepostprint.org/dev/submit/	Unknown Selector operator: '' -- was your selector value properly escaped? field='test', value='', selector: 'title=test, test' (in /wire/core/Selectors.php line 419)
2020-04-02 20:03:59	admin	https://prepostprint.org/dev/submit/	Unknown Selector operator: '' -- was your selector value properly escaped? field='test', value='', selector: 'name=test, test' (in /wire/core/Selectors.php line 419)
2020-04-02 20:59:46	admin	https://prepostprint.org/dev/submit/	Unknown Selector operator: '' -- was your selector value properly escaped? field='bar', value='', selector: 'name=foo, bar,baz /boo' (in /wire/core/Selectors.php line 419)
2020-04-05 14:58:46	admin	https://prepostprint.org/dev/	Method Page::field does not exist or is not callable in this context (in /wire/core/Wire.php line 519)
2020-04-05 14:59:13	admin	https://prepostprint.org/dev/	Method Page::field does not exist or is not callable in this context (in /wire/core/Wire.php line 519)
2020-04-05 14:59:18	admin	https://prepostprint.org/dev/	Method Page::field does not exist or is not callable in this context (in /wire/core/Wire.php line 519)
2020-04-18 09:23:07	guest	https://prepostprint.org/dev/submit/	Unknown Selector operator: '' -- was your selector value properly escaped? field='Willem', value='de Kooning Academie', selector: 'title=Master of Arts in Fine Art and Design: Experimental Publishing Piet Zwart Institute, Willem de Kooning Academie' (in /wire/core/Selectors.php line 419)
2020-06-07 00:10:25	admin	https://prepostprint.org/dev/submit/	Unknown Selector operator: '' -- was your selector value properly escaped? field='love', value='', selector: 'title=html, love' (in /wire/core/Selectors.php line 419)
2020-06-07 00:43:10	admin	https://prepostprint.org/dev/submit/	Unknown Selector operator: '' -- was your selector value properly escaped? field='love', value='', selector: 'title=html, love' (in /wire/core/Selectors.php line 419)
2020-06-07 00:44:24	admin	https://prepostprint.org/dev/submit/	Unknown Selector operator: '' -- was your selector value properly escaped? field='love', value='', selector: 'title=html, love' (in /wire/core/Selectors.php line 419)
2020-06-07 00:45:26	admin	https://prepostprint.org/dev/submit/	Unknown Selector operator: '' -- was your selector value properly escaped? field='love', value='', selector: 'title=html, love' (in /wire/core/Selectors.php line 419)
2020-06-07 00:52:47	admin	https://prepostprint.org/dev/submit/	Unknown Selector operator: '' -- was your selector value properly escaped? field='love', value='', selector: 'title=html, love' (in /wire/core/Selectors.php line 419)
2020-06-07 11:32:14	admin	https://prepostprint.org/dev/submit/	This request was aborted because it appears to be forged. (in /wire/core/SessionCSRF.php line 191)
2020-06-07 11:56:57	admin	https://prepostprint.org/dev/submit/	Page 1389 is not valid for designers (Page 1389 does not have required template(s): 52) (in /wire/modules/Fieldtype/FieldtypePage.module line 630)
2020-06-09 12:43:13	guest	https://prepostprint.org/dev/selection/	Method Pageimages::size does not exist or is not callable in this context (in /wire/core/Wire.php line 519)
